<?xml version="1.0" encoding="UTF-8"?>
<svg xmlns="http://www.w3.org/2000/svg" xmlns:xlink="http://www.w3.org/1999/xlink" width="608pt" height="915.203125pt" viewBox="0 0 608 915.203125" version="1.1">
<defs>
<g>
<symbol overflow="visible" id="glyph0-0">
<path style="stroke:none;" d="M 115.199219 -166.398438 L 115.199219 -204.800781 L 12.800781 -204.800781 L 12.800781 -168.960938 L 90.367188 -168.960938 L 51.199219 -38.398438 L 51.199219 0 L 65.28125 0 Z M 115.199219 -166.398438 "/>
</symbol>
<symbol overflow="visible" id="glyph0-1">
<path style="stroke:none;" d="M 26.878906 -69.121094 L 26.878906 -135.679688 C 26.878906 -152.320312 39.425781 -168.960938 64 -168.960938 C 88.832031 -168.960938 101.121094 -152.320312 101.121094 -135.679688 L 101.121094 -69.121094 C 101.121094 -52.480469 88.574219 -35.839844 64 -35.839844 C 39.167969 -35.839844 26.878906 -52.480469 26.878906 -69.121094 Z M 12.800781 -51.199219 C 12.800781 -23.039062 35.839844 0 64 0 C 92.160156 0 115.199219 -23.039062 115.199219 -53.761719 L 115.199219 -153.601562 C 115.199219 -181.761719 92.160156 -204.800781 64 -204.800781 C 35.839844 -204.800781 12.800781 -181.761719 12.800781 -151.039062 Z M 52.480469 -76.800781 L 62.71875 -76.800781 L 75.519531 -89.601562 L 75.519531 -128 L 65.28125 -128 L 52.480469 -115.199219 Z M 52.480469 -76.800781 "/>
</symbol>
<symbol overflow="visible" id="glyph0-2">
<path style="stroke:none;" d="M 64 -204.800781 C 35.839844 -204.800781 12.800781 -181.761719 12.800781 -151.039062 L 12.800781 -115.199219 L 26.878906 -115.199219 L 26.878906 -133.121094 C 26.878906 -149.761719 39.425781 -166.398438 64 -166.398438 C 78.59375 -166.398438 88.574219 -160.769531 94.71875 -152.832031 L 12.800781 -43.519531 L 12.800781 2.558594 L 115.199219 2.558594 L 115.199219 -35.839844 L 49.921875 -35.839844 L 115.199219 -122.878906 L 115.199219 -153.601562 C 115.199219 -181.761719 92.160156 -204.800781 64 -204.800781 Z M 64 -204.800781 "/>
</symbol>
<symbol overflow="visible" id="glyph0-3">
<path style="stroke:none;" d="M 12.800781 -76.800781 L 12.800781 -38.398438 L 81.921875 -38.398438 L 81.921875 0 L 96 0 L 96 -38.398438 L 115.199219 -38.398438 L 115.199219 -74.238281 L 96 -74.238281 L 96 -204.800781 L 81.921875 -204.800781 L 81.921875 -74.238281 L 54.785156 -74.238281 C 64.257812 -97.792969 70.398438 -130.304688 70.398438 -166.398438 L 70.398438 -204.800781 L 56.320312 -204.800781 C 56.320312 -140.03125 36.863281 -87.039062 12.800781 -76.800781 Z M 12.800781 -76.800781 "/>
</symbol>
<symbol overflow="visible" id="glyph0-4">
<path style="stroke:none;" d=""/>
</symbol>
<symbol overflow="visible" id="glyph0-5">
<path style="stroke:none;" d="M 78.078125 -35.839844 L 78.078125 -204.800781 L 64 -204.800781 L 19.199219 -160 L 19.199219 -121.601562 L 33.28125 -121.601562 L 64 -152.320312 L 64 -35.839844 L 12.800781 -35.839844 L 12.800781 0 L 115.199219 0 L 115.199219 -35.839844 Z M 78.078125 -35.839844 "/>
</symbol>
<symbol overflow="visible" id="glyph0-6">
<path style="stroke:none;" d="M 64 2.558594 C 92.160156 2.558594 115.199219 -20.480469 115.199219 -48.640625 L 115.199219 -87.039062 C 115.199219 -115.199219 92.160156 -138.238281 64 -138.238281 C 49.40625 -138.238281 36.351562 -132.097656 26.878906 -122.113281 L 26.878906 -133.121094 C 26.878906 -149.761719 39.425781 -166.398438 64 -166.398438 C 88.832031 -166.398438 101.121094 -149.761719 101.121094 -133.121094 L 115.199219 -133.121094 L 115.199219 -153.601562 C 115.199219 -181.761719 92.160156 -204.800781 64 -204.800781 C 35.839844 -204.800781 12.800781 -181.761719 12.800781 -151.039062 L 12.800781 -51.199219 C 12.800781 -20.480469 35.839844 2.558594 64 2.558594 Z M 26.878906 -69.121094 C 26.878906 -85.761719 39.425781 -102.398438 64 -102.398438 C 88.832031 -102.398438 101.121094 -85.761719 101.121094 -69.121094 C 101.121094 -52.480469 88.832031 -35.839844 64 -35.839844 C 39.425781 -35.839844 26.878906 -52.480469 26.878906 -69.121094 Z M 26.878906 -69.121094 "/>
</symbol>
<symbol overflow="visible" id="glyph0-7">
<path style="stroke:none;" d="M 64 -204.800781 C 35.839844 -204.800781 12.800781 -181.761719 12.800781 -153.601562 L 12.800781 -117.761719 C 12.800781 -89.601562 35.839844 -66.558594 64 -66.558594 C 78.59375 -66.558594 91.648438 -72.703125 101.121094 -82.6875 L 101.121094 -66.558594 C 101.121094 -49.921875 88.574219 -33.28125 64 -33.28125 C 39.167969 -33.28125 26.878906 -49.921875 26.878906 -66.558594 L 12.800781 -66.558594 L 12.800781 -46.078125 C 12.800781 -17.921875 35.839844 2.558594 64 2.558594 C 92.160156 2.558594 115.199219 -20.480469 115.199219 -51.199219 L 115.199219 -151.039062 C 115.199219 -181.761719 92.160156 -204.800781 64 -204.800781 Z M 26.878906 -135.679688 C 26.878906 -152.320312 39.167969 -168.960938 64 -168.960938 C 88.574219 -168.960938 101.121094 -152.320312 101.121094 -135.679688 C 101.121094 -119.039062 88.574219 -102.398438 64 -102.398438 C 39.167969 -102.398438 26.878906 -119.039062 26.878906 -135.679688 Z M 26.878906 -135.679688 "/>
</symbol>
<symbol overflow="visible" id="glyph0-8">
<path style="stroke:none;" d="M 25.601562 -204.800781 L 12.800781 -125.441406 L 12.800781 -87.039062 L 32.257812 -87.039062 C 38.144531 -96 48.640625 -102.398438 64 -102.398438 C 88.832031 -102.398438 101.121094 -85.761719 101.121094 -69.121094 C 101.121094 -52.480469 88.832031 -35.839844 64 -35.839844 C 48.894531 -35.839844 38.144531 -42.238281 32.257812 -51.199219 L 12.800781 -51.199219 C 12.800781 -20.480469 35.839844 2.558594 64 2.558594 C 92.160156 2.558594 115.199219 -20.480469 115.199219 -48.640625 L 115.199219 -87.039062 C 115.199219 -115.199219 92.160156 -138.238281 64 -138.238281 C 52.480469 -138.238281 41.984375 -134.398438 33.535156 -128 L 39.679688 -166.398438 L 115.199219 -166.398438 L 115.199219 -204.800781 Z M 25.601562 -204.800781 "/>
</symbol>
<symbol overflow="visible" id="glyph0-9">
<path style="stroke:none;" d="M 12.800781 -204.800781 L 12.800781 -145.921875 L 40.703125 -112.640625 L 12.800781 -79.359375 L 12.800781 -51.199219 C 12.800781 -20.480469 35.839844 2.558594 64 2.558594 C 92.160156 2.558594 115.199219 -20.480469 115.199219 -48.640625 L 115.199219 -79.359375 L 87.296875 -112.640625 L 115.199219 -145.921875 L 115.199219 -204.800781 Z M 33.792969 -49.152344 L 64 -84.992188 L 94.207031 -49.152344 C 88.320312 -41.214844 78.078125 -35.839844 64 -35.839844 C 49.921875 -35.839844 39.679688 -41.214844 33.792969 -49.152344 Z M 41.984375 -166.398438 L 86.015625 -166.398438 L 64 -140.289062 Z M 41.984375 -166.398438 "/>
</symbol>
<symbol overflow="visible" id="glyph0-10">
<path style="stroke:none;" d="M 12.800781 -204.800781 L 12.800781 -168.960938 L 72.703125 -168.960938 L 35.585938 -135.425781 L 35.585938 -97.023438 L 49.664062 -97.023438 L 49.921875 -97.28125 C 53.503906 -100.351562 58.113281 -102.398438 64 -102.398438 C 88.574219 -102.398438 101.121094 -85.761719 101.121094 -69.121094 C 101.121094 -52.480469 88.574219 -35.839844 64 -35.839844 C 39.167969 -35.839844 26.878906 -52.480469 26.878906 -69.121094 L 12.800781 -69.121094 L 12.800781 -51.199219 C 12.800781 -23.039062 35.839844 0 64 0 C 92.160156 0 115.199219 -23.039062 115.199219 -53.761719 L 115.199219 -84.480469 C 115.199219 -105.472656 104.191406 -123.136719 88.320312 -131.839844 L 115.199219 -156.160156 L 115.199219 -204.800781 Z M 12.800781 -204.800781 "/>
</symbol>
</g>
</defs>
<g id="surface1">
<rect x="0" y="0" width="608" height="915.203125" style="fill:rgb(80%,80%,66.666667%);fill-opacity:1;stroke:none;"/>
<g style="fill:rgb(73.333333%,53.333333%,13.333333%);fill-opacity:1;">
  <use xlink:href="#glyph0-0" x="16" y="233.59375"/>
  <use xlink:href="#glyph0-1" x="144" y="233.59375"/>
  <use xlink:href="#glyph0-2" x="272" y="233.59375"/>
  <use xlink:href="#glyph0-3" x="400" y="233.59375"/>
  <use xlink:href="#glyph0-4" x="528" y="233.59375"/>
</g>
<g style="fill:rgb(73.333333%,53.333333%,13.333333%);fill-opacity:1;">
  <use xlink:href="#glyph0-5" x="16" y="540.796875"/>
  <use xlink:href="#glyph0-6" x="144" y="540.796875"/>
  <use xlink:href="#glyph0-7" x="272" y="540.796875"/>
  <use xlink:href="#glyph0-8" x="400" y="540.796875"/>
</g>
<g style="fill:rgb(73.333333%,53.333333%,13.333333%);fill-opacity:1;">
  <use xlink:href="#glyph0-4" x="16" y="848"/>
  <use xlink:href="#glyph0-4" x="80" y="848"/>
  <use xlink:href="#glyph0-9" x="144" y="848"/>
  <use xlink:href="#glyph0-10" x="272" y="848"/>
</g>
</g>
</svg>
